<?xml version="1.0" encoding="utf-8"?>
<svg version="1.1" id="Layer_1" xmlns="http://www.w3.org/2000/svg" xmlns:xlink="http://www.w3.org/1999/xlink" x="0px" y="0px"
	 viewBox="0 0 48 48" style="enable-background:new 0 0 48 48;" xml:space="preserve">
<path
   d="M 0,23.989338 C 0,20.748112 0.6397157,17.634829 1.8978232,14.670813 3.1559307,11.706797 4.883163,9.1692581 7.0155486,7.0155486 9.1479343,4.8618392 11.706797,3.1559307 14.670813,1.8978232 17.634829,0.6397157 20.726788,0 23.989338,0 c 3.26255,0 6.354509,0.6397157 9.318525,1.8978232 2.964016,1.2581075 5.522879,2.9853398 7.676588,5.1177254 2.15371,2.1323856 3.859618,4.6912484 5.117726,7.6552644 C 47.360284,17.634829 48,20.726788 48,23.989338 c 0,3.26255 -0.639716,6.354509 -1.897823,9.318525 -1.258108,2.964016 -2.98534,5.522879 -5.117726,7.676588 -2.132385,2.15371 -4.691248,3.859618 -7.676588,5.117726 C 30.322523,47.360284 27.230564,48 23.989338,48 20.748112,48 17.634829,47.360284 14.670813,46.102177 11.706797,44.844069 9.1692581,43.116837 7.0155486,40.984451 4.8618392,38.852066 3.1559307,36.293203 1.8978232,33.307863 0.6397157,30.322523 0,27.251888 0,23.989338 Z m 2.5588627,0 c 0,2.921368 0.5757441,5.69347 1.7059085,8.337628 1.1301644,2.644158 2.665482,4.925811 4.5846291,6.844958 1.9191467,1.919147 4.2007997,3.43314 6.8449577,4.584629 2.644158,1.151488 5.41626,1.705908 8.316304,1.705908 0.703687,0 1.236784,0 1.556641,-0.02132 1.663261,-1.300755 3.070636,-2.793425 4.179476,-4.499333 1.108841,-1.705909 1.961795,-3.53976 2.516215,-5.480231 0.55442,-1.940471 0.93825,-3.816971 1.151488,-5.608175 0.213239,-1.791203 0.319858,-3.731674 0.319858,-5.842736 0,-4.072857 -0.682363,-8.01777 -2.068414,-11.813416 -1.38605,-3.7956467 -3.518436,-6.9942251 -6.439804,-9.5744117 -0.27721,-0.021324 -0.682364,-0.021324 -1.258108,-0.021324 -2.900044,0 -5.672145,0.5757442 -8.316304,1.7059085 C 13.007552,5.4375872 10.768547,6.9302571 8.8494003,8.8494042 6.9302532,10.768547 5.4162594,13.0502 4.2647712,15.694358 3.113283,18.338516 2.5588627,21.110618 2.5588627,23.989338 Z"
   id="path285"
   style="stroke-width:2.13239" />
</svg>
